Refugees - Refugee Project Proposal
…
The two questions you want to answer.

A plan for answering each of the questions including the variables involved, variables to be created (if any), external data to be merged in (if any).

Dataset summary:

There are 126,262 observations in the dataset, and there are 16 variables. 10 of the variables are numerical and 6 are categorical. Each observation in the dataset represents data on forcibly displaced populations, including refugees, asylum-seekers, internally displaced people (IDPs), stateless people, others of concern to the UNHCR, and host community members. It includes details such as year, country of origin and asylum (names and codes), and counts for different categories of displaced individuals, from 2010 to 2022. This data comes from the UNHCR, UNRWA for Palestine refugees, and IDMC for internally displaced persons due to conflict or violence.

dim(populations)

[1] 126262     16

populations

# A tibble: 126,262 × 16
    year coo_name coo   coo_iso coa_name   coa   coa_iso refugees asylum_seekers
   <dbl> <chr>    <chr> <chr>   <chr>      <chr> <chr>      <dbl>          <dbl>
 1  1951 Unknown  UKN   UNK     Australia  AUL   AUS       180000              0
 2  1951 Unknown  UKN   UNK     Austria    AUS   AUT       282000              0
 3  1951 Unknown  UKN   UNK     Belgium    BEL   BEL        55000              0
 4  1951 Unknown  UKN   UNK     Canada     CAN   CAN       168511              0
 5  1951 Unknown  UKN   UNK     Denmark    DEN   DNK         2000              0
 6  1951 Unknown  UKN   UNK     France     FRA   FRA       290000              0
 7  1951 Unknown  UKN   UNK     United Ki… GBR   GBR       208000              0
 8  1951 Unknown  UKN   UNK     Germany    GFR   DEU       265000              0
 9  1951 Unknown  UKN   UNK     Greece     GRE   GRC        18000              0
10  1951 Unknown  UKN   UNK     China, Ho… HKG   HKG        30000              0
# ℹ 126,252 more rows
# ℹ 7 more variables: returned_refugees <dbl>, idps <dbl>, returned_idps <dbl>,
#   stateless <dbl>, ooc <dbl>, oip <dbl>, hst <dbl>
…
